{
   "term_id":5,
   "name":"Main Menu",
   "slug":"main-menu",
   "term_group":0,
   "term_taxonomy_id":5,
   "taxonomy":"nav_menu",
   "description":"",
   "parent":0,
   "count":31,
   "filter":"raw",
   "items":[
      {
         "ID":434,
         "post_author":"3",
         "post_date":"2020-03-06 11:10:10",
         "post_date_gmt":"2020-03-06 18:10:10",
         "post_content":"",
         "post_title":"Adopt",
         "post_excerpt":"",
         "post_status":"publish",
         "comment_status":"closed",
         "ping_status":"closed",
         "post_password":"",
         "post_name":"adopt",
         "to_ping":"",
         "pinged":"",
         "post_modified":"2020-04-03 07:58:23",
         "post_modified_gmt":"2020-04-03 13:58:23",
         "post_content_filtered":"",
         "post_parent":0,
         "guid":"https:\/\/hsppr.wpengine.com\/?p=434",
         "menu_order":1,
         "post_type":"nav_menu_item",
         "post_mime_type":"",
         "comment_count":"0",
         "filter":"raw",
         "db_id":434,
         "menu_item_parent":"0",
         "object_id":"434",
         "object":"custom",
         "type":"custom",
         "type_label":"Custom Link",
         "title":"Adopt",
         "url":"#",
         "target":"",
         "attr_title":"",
         "description":"",
         "classes":[
            ""
         ],
         "xfn":"",
         "child_items":[
            {
               "ID":435,
               "post_author":"3",
               "post_date":"2020-03-06 11:10:10",
               "post_date_gmt":"2020-03-06 18:10:10",
               "post_content":"",
               "post_title":"Adopt a Pet",
               "post_excerpt":"",
               "post_status":"publish",
               "comment_status":"closed",
               "ping_status":"closed",
               "post_password":"",
               "post_name":"adopt-a-pet",
               "to_ping":"",
               "pinged":"",
               "post_modified":"2020-04-03 07:58:23",
               "post_modified_gmt":"2020-04-03 13:58:23",
               "post_content_filtered":"",
               "post_parent":0,
               "guid":"https:\/\/hsppr.wpengine.com\/?p=435",
               "menu_order":2,
               "post_type":"nav_menu_item",
               "post_mime_type":"",
               "comment_count":"0",
               "filter":"raw",
               "db_id":435,
               "menu_item_parent":"434",
               "object_id":"435",
               "object":"custom",
               "type":"custom",
               "type_label":"Custom Link",
               "title":"Adopt a Pet",
               "url":"https:\/\/www.hsppr.org\/adopt",
               "target":"",
               "attr_title":"",
               "description":"",
               "classes":[
                  ""
               ],
               "xfn":""
            },
            {
               "ID":436,
               "post_author":"3",
               "post_date":"2020-03-06 11:10:10",
               "post_date_gmt":"2020-03-06 18:10:10",
               "post_content":"",
               "post_title":"Adoption Process",
               "post_excerpt":"",
               "post_status":"publish",
               "comment_status":"closed",
               "ping_status":"closed",
               "post_password":"",
               "post_name":"adoption-process",
               "to_ping":"",
               "pinged":"",
               "post_modified":"2020-04-03 07:58:23",
               "post_modified_gmt":"2020-04-03 13:58:23",
               "post_content_filtered":"",
               "post_parent":81,
               "guid":"https:\/\/hsppr.wpengine.com\/?p=436",
               "menu_order":3,
               "post_type":"nav_menu_item",
               "post_mime_type":"",
               "comment_count":"0",
               "filter":"raw",
               "db_id":436,
               "menu_item_parent":"434",
               "object_id":"82",
               "object":"page",
               "type":"post_type",
               "type_label":"Page",
               "url":"https:\/\/hsppr.wpengine.com\/adopt\/adoption-process\/",
               "title":"Adoption Process",
               "target":"",
               "attr_title":"",
               "description":"",
               "classes":[
                  ""
               ],
               "xfn":"",
               "slug":"adoption-process"
            },
            {
               "ID":437,
               "post_author":"3",
               "post_date":"2020-03-06 11:10:10",
               "post_date_gmt":"2020-03-06 18:10:10",
               "post_content":"",
               "post_title":"Barn Cats",
               "post_excerpt":"",
               "post_status":"publish",
               "comment_status":"closed",
               "ping_status":"closed",
               "post_password":"",
               "post_name":"barn-cats",
               "to_ping":"",
               "pinged":"",
               "post_modified":"2020-04-03 07:58:23",
               "post_modified_gmt":"2020-04-03 13:58:23",
               "post_content_filtered":"",
               "post_parent":81,
               "guid":"https:\/\/hsppr.wpengine.com\/?p=437",
               "menu_order":4,
               "post_type":"nav_menu_item",
               "post_mime_type":"",
               "comment_count":"0",
               "filter":"raw",
               "db_id":437,
               "menu_item_parent":"434",
               "object_id":"83",
               "object":"page",
               "type":"post_type",
               "type_label":"Page",
               "url":"https:\/\/hsppr.wpengine.com\/adopt\/barn-cats\/",
               "title":"Barn Cats",
               "target":"",
               "attr_title":"",
               "description":"",
               "classes":[
                  ""
               ],
               "xfn":"",
               "slug":"barn-cats"
            },
            {
               "ID":438,
               "post_author":"3",
               "post_date":"2020-03-06 11:10:10",
               "post_date_gmt":"2020-03-06 18:10:10",
               "post_content":"",
               "post_title":"Cat Cam",
               "post_excerpt":"",
               "post_status":"publish",
               "comment_status":"closed",
               "ping_status":"closed",
               "post_password":"",
               "post_name":"cat-cam",
               "to_ping":"",
               "pinged":"",
               "post_modified":"2020-04-03 07:58:23",
               "post_modified_gmt":"2020-04-03 13:58:23",
               "post_content_filtered":"",
               "post_parent":81,
               "guid":"https:\/\/hsppr.wpengine.com\/?p=438",
               "menu_order":5,
               "post_type":"nav_menu_item",
               "post_mime_type":"",
               "comment_count":"0",
               "filter":"raw",
               "db_id":438,
               "menu_item_parent":"434",
               "object_id":"84",
               "object":"page",
               "type":"post_type",
               "type_label":"Page",
               "url":"https:\/\/hsppr.wpengine.com\/adopt\/catcam\/",
               "title":"Cat Cam",
               "target":"",
               "attr_title":"",
               "description":"",
               "classes":[
                  ""
               ],
               "xfn":"",
               "slug":"catcam"
            }
         ]
      },
      {
         "ID":460,
         "post_author":"3",
         "post_date":"2020-03-06 11:10:10",
         "post_date_gmt":"2020-03-06 18:10:10",
         "post_content":"",
         "post_title":"Support HSPPR",
         "post_excerpt":"",
         "post_status":"publish",
         "comment_status":"closed",
         "ping_status":"closed",
         "post_password":"",
         "post_name":"support-hsppr",
         "to_ping":"",
         "pinged":"",
         "post_modified":"2020-04-03 07:58:23",
         "post_modified_gmt":"2020-04-03 13:58:23",
         "post_content_filtered":"",
         "post_parent":0,
         "guid":"https:\/\/hsppr.wpengine.com\/?p=460",
         "menu_order":6,
         "post_type":"nav_menu_item",
         "post_mime_type":"",
         "comment_count":"0",
         "filter":"raw",
         "db_id":460,
         "menu_item_parent":"0",
         "object_id":"460",
         "object":"custom",
         "type":"custom",
         "type_label":"Custom Link",
         "title":"Support HSPPR",
         "url":"#",
         "target":"",
         "attr_title":"",
         "description":"",
         "classes":[
            ""
         ],
         "xfn":"",
         "child_items":[
            {
               "ID":459,
               "post_author":"3",
               "post_date":"2020-03-06 11:10:10",
               "post_date_gmt":"2020-03-06 18:10:10",
               "post_content":"",
               "post_title":"How to Donate",
               "post_excerpt":"",
               "post_status":"publish",
               "comment_status":"closed",
               "ping_status":"closed",
               "post_password":"",
               "post_name":"how-to-donate",
               "to_ping":"",
               "pinged":"",
               "post_modified":"2020-04-03 07:58:23",
               "post_modified_gmt":"2020-04-03 13:58:23",
               "post_content_filtered":"",
               "post_parent":0,
               "guid":"https:\/\/hsppr.wpengine.com\/?p=459",
               "menu_order":7,
               "post_type":"nav_menu_item",
               "post_mime_type":"",
               "comment_count":"0",
               "filter":"raw",
               "db_id":459,
               "menu_item_parent":"460",
               "object_id":"73",
               "object":"page",
               "type":"post_type",
               "type_label":"Page",
               "url":"https:\/\/hsppr.wpengine.com\/donate\/",
               "title":"How to Donate",
               "target":"",
               "attr_title":"",
               "description":"",
               "classes":[
                  ""
               ],
               "xfn":"",
               "slug":"donate"
            },
            {
               "ID":462,
               "post_author":"3",
               "post_date":"2020-03-06 11:10:10",
               "post_date_gmt":"2020-03-06 18:10:10",
               "post_content":" ",
               "post_title":"",
               "post_excerpt":"",
               "post_status":"publish",
               "comment_status":"closed",
               "ping_status":"closed",
               "post_password":"",
               "post_name":"462",
               "to_ping":"",
               "pinged":"",
               "post_modified":"2020-04-03 07:58:23",
               "post_modified_gmt":"2020-04-03 13:58:23",
               "post_content_filtered":"",
               "post_parent":73,
               "guid":"https:\/\/hsppr.wpengine.com\/?p=462",
               "menu_order":8,
               "post_type":"nav_menu_item",
               "post_mime_type":"",
               "comment_count":"0",
               "filter":"raw",
               "db_id":462,
               "menu_item_parent":"460",
               "object_id":"184",
               "object":"page",
               "type":"post_type",
               "type_label":"Page",
               "url":"https:\/\/hsppr.wpengine.com\/donate\/happy-tails-league\/",
               "title":"Happy Tails League",
               "target":"",
               "attr_title":"",
               "description":"",
               "classes":[
                  ""
               ],
               "xfn":"",
               "slug":"happy-tails-league"
            },
            {
               "ID":461,
               "post_author":"3",
               "post_date":"2020-03-06 11:10:10",
               "post_date_gmt":"2020-03-06 18:10:10",
               "post_content":"",
               "post_title":"Give a Treat",
               "post_excerpt":"",
               "post_status":"publish",
               "comment_status":"closed",
               "ping_status":"closed",
               "post_password":"",
               "post_name":"give-a-treat",
               "to_ping":"",
               "pinged":"",
               "post_modified":"2020-04-03 07:58:23",
               "post_modified_gmt":"2020-04-03 13:58:23",
               "post_content_filtered":"",
               "post_parent":73,
               "guid":"https:\/\/hsppr.wpengine.com\/?p=461",
               "menu_order":9,
               "post_type":"nav_menu_item",
               "post_mime_type":"",
               "comment_count":"0",
               "filter":"raw",
               "db_id":461,
               "menu_item_parent":"460",
               "object_id":"74",
               "object":"page",
               "type":"post_type",
               "type_label":"Page",
               "url":"https:\/\/hsppr.wpengine.com\/donate\/give-me-a-treat\/",
               "title":"Give a Treat",
               "target":"",
               "attr_title":"",
               "description":"",
               "classes":[
                  ""
               ],
               "xfn":"",
               "slug":"give-me-a-treat"
            },
            {
               "ID":463,
               "post_author":"3",
               "post_date":"2020-03-06 11:10:10",
               "post_date_gmt":"2020-03-06 18:10:10",
               "post_content":" ",
               "post_title":"",
               "post_excerpt":"",
               "post_status":"publish",
               "comment_status":"closed",
               "ping_status":"closed",
               "post_password":"",
               "post_name":"463",
               "to_ping":"",
               "pinged":"",
               "post_modified":"2020-04-03 07:58:23",
               "post_modified_gmt":"2020-04-03 13:58:23",
               "post_content_filtered":"",
               "post_parent":73,
               "guid":"https:\/\/hsppr.wpengine.com\/?p=463",
               "menu_order":10,
               "post_type":"nav_menu_item",
               "post_mime_type":"",
               "comment_count":"0",
               "filter":"raw",
               "db_id":463,
               "menu_item_parent":"460",
               "object_id":"75",
               "object":"page",
               "type":"post_type",
               "type_label":"Page",
               "url":"https:\/\/hsppr.wpengine.com\/donate\/other-ways-to-give\/",
               "title":"Other Ways to Give",
               "target":"",
               "attr_title":"",
               "description":"",
               "classes":[
                  ""
               ],
               "xfn":"",
               "slug":"other-ways-to-give"
            }
         ]
      },
      {
         "ID":444,
         "post_author":"3",
         "post_date":"2020-03-06 11:10:10",
         "post_date_gmt":"2020-03-06 18:10:10",
         "post_content":"",
         "post_title":"Get Involved",
         "post_excerpt":"",
         "post_status":"publish",
         "comment_status":"closed",
         "ping_status":"closed",
         "post_password":"",
         "post_name":"get-involved",
         "to_ping":"",
         "pinged":"",
         "post_modified":"2020-04-03 07:58:23",
         "post_modified_gmt":"2020-04-03 13:58:23",
         "post_content_filtered":"",
         "post_parent":0,
         "guid":"https:\/\/hsppr.wpengine.com\/?p=444",
         "menu_order":11,
         "post_type":"nav_menu_item",
         "post_mime_type":"",
         "comment_count":"0",
         "filter":"raw",
         "db_id":444,
         "menu_item_parent":"0",
         "object_id":"444",
         "object":"custom",
         "type":"custom",
         "type_label":"Custom Link",
         "title":"Get Involved",
         "url":"#",
         "target":"",
         "attr_title":"",
         "description":"",
         "classes":[
            ""
         ],
         "xfn":"",
         "child_items":[
            {
               "ID":439,
               "post_author":"3",
               "post_date":"2020-03-06 11:10:10",
               "post_date_gmt":"2020-03-06 18:10:10",
               "post_content":"",
               "post_title":"Ways to Help",
               "post_excerpt":"",
               "post_status":"publish",
               "comment_status":"closed",
               "ping_status":"closed",
               "post_password":"",
               "post_name":"ways-to-help",
               "to_ping":"",
               "pinged":"",
               "post_modified":"2020-04-03 07:58:23",
               "post_modified_gmt":"2020-04-03 13:58:23",
               "post_content_filtered":"",
               "post_parent":0,
               "guid":"https:\/\/hsppr.wpengine.com\/?p=439",
               "menu_order":12,
               "post_type":"nav_menu_item",
               "post_mime_type":"",
               "comment_count":"0",
               "filter":"raw",
               "db_id":439,
               "menu_item_parent":"444",
               "object_id":"85",
               "object":"page",
               "type":"post_type",
               "type_label":"Page",
               "url":"https:\/\/hsppr.wpengine.com\/get-involved\/",
               "title":"Ways to Help",
               "target":"",
               "attr_title":"",
               "description":"",
               "classes":[
                  ""
               ],
               "xfn":"",
               "slug":"get-involved"
            },
            {
               "ID":447,
               "post_author":"3",
               "post_date":"2020-03-06 11:10:10",
               "post_date_gmt":"2020-03-06 18:10:10",
               "post_content":" ",
               "post_title":"",
               "post_excerpt":"",
               "post_status":"publish",
               "comment_status":"closed",
               "ping_status":"closed",
               "post_password":"",
               "post_name":"447",
               "to_ping":"",
               "pinged":"",
               "post_modified":"2020-04-03 07:58:23",
               "post_modified_gmt":"2020-04-03 13:58:23",
               "post_content_filtered":"",
               "post_parent":85,
               "guid":"https:\/\/hsppr.wpengine.com\/?p=447",
               "menu_order":13,
               "post_type":"nav_menu_item",
               "post_mime_type":"",
               "comment_count":"0",
               "filter":"raw",
               "db_id":447,
               "menu_item_parent":"444",
               "object_id":"86",
               "object":"page",
               "type":"post_type",
               "type_label":"Page",
               "url":"https:\/\/hsppr.wpengine.com\/get-involved\/volunteer\/",
               "title":"Volunteer",
               "target":"",
               "attr_title":"",
               "description":"",
               "classes":[
                  ""
               ],
               "xfn":"",
               "slug":"volunteer"
            },
            {
               "ID":446,
               "post_author":"3",
               "post_date":"2020-03-06 11:10:10",
               "post_date_gmt":"2020-03-06 18:10:10",
               "post_content":" ",
               "post_title":"",
               "post_excerpt":"",
               "post_status":"publish",
               "comment_status":"closed",
               "ping_status":"closed",
               "post_password":"",
               "post_name":"446",
               "to_ping":"",
               "pinged":"",
               "post_modified":"2020-04-03 07:58:23",
               "post_modified_gmt":"2020-04-03 13:58:23",
               "post_content_filtered":"",
               "post_parent":85,
               "guid":"https:\/\/hsppr.wpengine.com\/?p=446",
               "menu_order":14,
               "post_type":"nav_menu_item",
               "post_mime_type":"",
               "comment_count":"0",
               "filter":"raw",
               "db_id":446,
               "menu_item_parent":"444",
               "object_id":"89",
               "object":"page",
               "type":"post_type",
               "type_label":"Page",
               "url":"https:\/\/hsppr.wpengine.com\/get-involved\/foster-care\/",
               "title":"Foster Care",
               "target":"",
               "attr_title":"",
               "description":"",
               "classes":[
                  ""
               ],
               "xfn":"",
               "slug":"foster-care"
            },
            {
               "ID":448,
               "post_author":"3",
               "post_date":"2020-03-06 11:10:10",
               "post_date_gmt":"2020-03-06 18:10:10",
               "post_content":" ",
               "post_title":"",
               "post_excerpt":"",
               "post_status":"publish",
               "comment_status":"closed",
               "ping_status":"closed",
               "post_password":"",
               "post_name":"448",
               "to_ping":"",
               "pinged":"",
               "post_modified":"2020-04-03 07:58:23",
               "post_modified_gmt":"2020-04-03 13:58:23",
               "post_content_filtered":"",
               "post_parent":85,
               "guid":"https:\/\/hsppr.wpengine.com\/?p=448",
               "menu_order":15,
               "post_type":"nav_menu_item",
               "post_mime_type":"",
               "comment_count":"0",
               "filter":"raw",
               "db_id":448,
               "menu_item_parent":"444",
               "object_id":"87",
               "object":"page",
               "type":"post_type",
               "type_label":"Page",
               "url":"https:\/\/hsppr.wpengine.com\/get-involved\/youth-programs\/",
               "title":"Youth Programs",
               "target":"",
               "attr_title":"",
               "description":"",
               "classes":[
                  ""
               ],
               "xfn":"",
               "slug":"youth-programs"
            },
            {
               "ID":663,
               "post_author":"7",
               "post_date":"2020-03-30 14:12:57",
               "post_date_gmt":"2020-03-30 20:12:57",
               "post_content":" ",
               "post_title":"",
               "post_excerpt":"",
               "post_status":"publish",
               "comment_status":"closed",
               "ping_status":"closed",
               "post_password":"",
               "post_name":"663",
               "to_ping":"",
               "pinged":"",
               "post_modified":"2020-04-03 07:58:23",
               "post_modified_gmt":"2020-04-03 13:58:23",
               "post_content_filtered":"",
               "post_parent":0,
               "guid":"https:\/\/hsppr.wpengine.com\/?p=663",
               "menu_order":16,
               "post_type":"nav_menu_item",
               "post_mime_type":"",
               "comment_count":"0",
               "filter":"raw",
               "db_id":663,
               "menu_item_parent":"444",
               "object_id":"77",
               "object":"page",
               "type":"post_type",
               "type_label":"Page",
               "url":"https:\/\/hsppr.wpengine.com\/events\/",
               "title":"Events",
               "target":"",
               "attr_title":"",
               "description":"",
               "classes":[
                  ""
               ],
               "xfn":"",
               "slug":"events",
               "child_items":[
                  {
                     "ID":669,
                     "post_author":"7",
                     "post_date":"2020-03-30 14:44:02",
                     "post_date_gmt":"2020-03-30 20:44:02",
                     "post_content":"",
                     "post_title":"Events Calendar",
                     "post_excerpt":"",
                     "post_status":"publish",
                     "comment_status":"closed",
                     "ping_status":"closed",
                     "post_password":"",
                     "post_name":"events-calendar",
                     "to_ping":"",
                     "pinged":"",
                     "post_modified":"2020-04-03 07:58:23",
                     "post_modified_gmt":"2020-04-03 13:58:23",
                     "post_content_filtered":"",
                     "post_parent":0,
                     "guid":"https:\/\/hsppr.wpengine.com\/?p=669",
                     "menu_order":17,
                     "post_type":"nav_menu_item",
                     "post_mime_type":"",
                     "comment_count":"0",
                     "filter":"raw",
                     "db_id":669,
                     "menu_item_parent":"663",
                     "object_id":"77",
                     "object":"page",
                     "type":"post_type",
                     "type_label":"Page",
                     "url":"https:\/\/hsppr.wpengine.com\/events\/",
                     "title":"Events Calendar",
                     "target":"",
                     "attr_title":"",
                     "description":"",
                     "classes":[
                        ""
                     ],
                     "xfn":"",
                     "slug":"events"
                  },
                  {
                     "ID":664,
                     "post_author":"7",
                     "post_date":"2020-03-30 14:12:57",
                     "post_date_gmt":"2020-03-30 20:12:57",
                     "post_content":"",
                     "post_title":"Key Events",
                     "post_excerpt":"",
                     "post_status":"publish",
                     "comment_status":"closed",
                     "ping_status":"closed",
                     "post_password":"",
                     "post_name":"key-events",
                     "to_ping":"",
                     "pinged":"",
                     "post_modified":"2020-04-03 07:58:23",
                     "post_modified_gmt":"2020-04-03 13:58:23",
                     "post_content_filtered":"",
                     "post_parent":0,
                     "guid":"https:\/\/hsppr.wpengine.com\/?p=664",
                     "menu_order":18,
                     "post_type":"nav_menu_item",
                     "post_mime_type":"",
                     "comment_count":"0",
                     "filter":"raw",
                     "db_id":664,
                     "menu_item_parent":"663",
                     "object_id":"664",
                     "object":"custom",
                     "type":"custom",
                     "type_label":"Custom Link",
                     "title":"Key Events",
                     "url":"#",
                     "target":"",
                     "attr_title":"",
                     "description":"",
                     "classes":[
                        ""
                     ],
                     "xfn":""
                  },
                  {
                     "ID":665,
                     "post_author":"7",
                     "post_date":"2020-03-30 14:12:57",
                     "post_date_gmt":"2020-03-30 20:12:57",
                     "post_content":"",
                     "post_title":"On-going Events",
                     "post_excerpt":"",
                     "post_status":"publish",
                     "comment_status":"closed",
                     "ping_status":"closed",
                     "post_password":"",
                     "post_name":"on-going-events",
                     "to_ping":"",
                     "pinged":"",
                     "post_modified":"2020-04-03 07:58:23",
                     "post_modified_gmt":"2020-04-03 13:58:23",
                     "post_content_filtered":"",
                     "post_parent":0,
                     "guid":"https:\/\/hsppr.wpengine.com\/?p=665",
                     "menu_order":19,
                     "post_type":"nav_menu_item",
                     "post_mime_type":"",
                     "comment_count":"0",
                     "filter":"raw",
                     "db_id":665,
                     "menu_item_parent":"663",
                     "object_id":"665",
                     "object":"custom",
                     "type":"custom",
                     "type_label":"Custom Link",
                     "title":"On-going Events",
                     "url":"#",
                     "target":"",
                     "attr_title":"",
                     "description":"",
                     "classes":[
                        ""
                     ],
                     "xfn":""
                  }
               ]
            },
            {
               "ID":445,
               "post_author":"3",
               "post_date":"2020-03-06 11:10:10",
               "post_date_gmt":"2020-03-06 18:10:10",
               "post_content":" ",
               "post_title":"",
               "post_excerpt":"",
               "post_status":"publish",
               "comment_status":"closed",
               "ping_status":"closed",
               "post_password":"",
               "post_name":"445",
               "to_ping":"",
               "pinged":"",
               "post_modified":"2020-04-03 07:58:23",
               "post_modified_gmt":"2020-04-03 13:58:23",
               "post_content_filtered":"",
               "post_parent":85,
               "guid":"https:\/\/hsppr.wpengine.com\/?p=445",
               "menu_order":20,
               "post_type":"nav_menu_item",
               "post_mime_type":"",
               "comment_count":"0",
               "filter":"raw",
               "db_id":445,
               "menu_item_parent":"444",
               "object_id":"90",
               "object":"page",
               "type":"post_type",
               "type_label":"Page",
               "url":"https:\/\/hsppr.wpengine.com\/get-involved\/sponsors-fundraisers\/",
               "title":"Sponsors &#038; Fundraisers",
               "target":"",
               "attr_title":"",
               "description":"",
               "classes":[
                  ""
               ],
               "xfn":"",
               "slug":"sponsors-fundraisers"
            }
         ]
      },
      {
         "ID":449,
         "post_author":"3",
         "post_date":"2020-03-06 11:10:10",
         "post_date_gmt":"2020-03-06 18:10:10",
         "post_content":"",
         "post_title":"Services",
         "post_excerpt":"",
         "post_status":"publish",
         "comment_status":"closed",
         "ping_status":"closed",
         "post_password":"",
         "post_name":"services",
         "to_ping":"",
         "pinged":"",
         "post_modified":"2020-04-03 07:58:23",
         "post_modified_gmt":"2020-04-03 13:58:23",
         "post_content_filtered":"",
         "post_parent":0,
         "guid":"https:\/\/hsppr.wpengine.com\/?p=449",
         "menu_order":21,
         "post_type":"nav_menu_item",
         "post_mime_type":"",
         "comment_count":"0",
         "filter":"raw",
         "db_id":449,
         "menu_item_parent":"0",
         "object_id":"449",
         "object":"custom",
         "type":"custom",
         "type_label":"Custom Link",
         "title":"Services",
         "url":"#",
         "target":"",
         "attr_title":"",
         "description":"",
         "classes":[
            ""
         ],
         "xfn":"",
         "child_items":[
            {
               "ID":453,
               "post_author":"3",
               "post_date":"2020-03-06 11:10:10",
               "post_date_gmt":"2020-03-06 18:10:10",
               "post_content":" ",
               "post_title":"",
               "post_excerpt":"",
               "post_status":"publish",
               "comment_status":"closed",
               "ping_status":"closed",
               "post_password":"",
               "post_name":"453",
               "to_ping":"",
               "pinged":"",
               "post_modified":"2020-04-03 07:58:23",
               "post_modified_gmt":"2020-04-03 13:58:23",
               "post_content_filtered":"",
               "post_parent":93,
               "guid":"https:\/\/hsppr.wpengine.com\/?p=453",
               "menu_order":22,
               "post_type":"nav_menu_item",
               "post_mime_type":"",
               "comment_count":"0",
               "filter":"raw",
               "db_id":453,
               "menu_item_parent":"449",
               "object_id":"95",
               "object":"page",
               "type":"post_type",
               "type_label":"Page",
               "url":"https:\/\/hsppr.wpengine.com\/services\/veterinary-services\/",
               "title":"Veterinary Services",
               "target":"",
               "attr_title":"",
               "description":"",
               "classes":[
                  ""
               ],
               "xfn":"",
               "slug":"veterinary-services"
            },
            {
               "ID":454,
               "post_author":"3",
               "post_date":"2020-03-06 11:10:10",
               "post_date_gmt":"2020-03-06 18:10:10",
               "post_content":"",
               "post_title":"Pet Licenses",
               "post_excerpt":"",
               "post_status":"publish",
               "comment_status":"closed",
               "ping_status":"closed",
               "post_password":"",
               "post_name":"pet-licenses",
               "to_ping":"",
               "pinged":"",
               "post_modified":"2020-04-03 07:58:23",
               "post_modified_gmt":"2020-04-03 13:58:23",
               "post_content_filtered":"",
               "post_parent":105,
               "guid":"https:\/\/hsppr.wpengine.com\/?p=454",
               "menu_order":23,
               "post_type":"nav_menu_item",
               "post_mime_type":"",
               "comment_count":"0",
               "filter":"raw",
               "db_id":454,
               "menu_item_parent":"449",
               "object_id":"106",
               "object":"page",
               "type":"post_type",
               "type_label":"Page",
               "url":"https:\/\/hsppr.wpengine.com\/law\/license-your-pet\/",
               "title":"Pet Licenses",
               "target":"",
               "attr_title":"",
               "description":"",
               "classes":[
                  ""
               ],
               "xfn":"",
               "slug":"license-your-pet"
            },
            {
               "ID":451,
               "post_author":"3",
               "post_date":"2020-03-06 11:10:10",
               "post_date_gmt":"2020-03-06 18:10:10",
               "post_content":" ",
               "post_title":"",
               "post_excerpt":"",
               "post_status":"publish",
               "comment_status":"closed",
               "ping_status":"closed",
               "post_password":"",
               "post_name":"451",
               "to_ping":"",
               "pinged":"",
               "post_modified":"2020-04-03 07:58:23",
               "post_modified_gmt":"2020-04-03 13:58:23",
               "post_content_filtered":"",
               "post_parent":93,
               "guid":"https:\/\/hsppr.wpengine.com\/?p=451",
               "menu_order":24,
               "post_type":"nav_menu_item",
               "post_mime_type":"",
               "comment_count":"0",
               "filter":"raw",
               "db_id":451,
               "menu_item_parent":"449",
               "object_id":"98",
               "object":"page",
               "type":"post_type",
               "type_label":"Page",
               "url":"https:\/\/hsppr.wpengine.com\/services\/end-of-life-care\/",
               "title":"End of Life Care",
               "target":"",
               "attr_title":"",
               "description":"",
               "classes":[
                  ""
               ],
               "xfn":"",
               "slug":"end-of-life-care"
            },
            {
               "ID":452,
               "post_author":"3",
               "post_date":"2020-03-06 11:10:10",
               "post_date_gmt":"2020-03-06 18:10:10",
               "post_content":"",
               "post_title":"Surrendering your Animal",
               "post_excerpt":"",
               "post_status":"publish",
               "comment_status":"closed",
               "ping_status":"closed",
               "post_password":"",
               "post_name":"surrendering-your-animal",
               "to_ping":"",
               "pinged":"",
               "post_modified":"2020-04-03 07:58:23",
               "post_modified_gmt":"2020-04-03 13:58:23",
               "post_content_filtered":"",
               "post_parent":93,
               "guid":"https:\/\/hsppr.wpengine.com\/?p=452",
               "menu_order":25,
               "post_type":"nav_menu_item",
               "post_mime_type":"",
               "comment_count":"0",
               "filter":"raw",
               "db_id":452,
               "menu_item_parent":"449",
               "object_id":"96",
               "object":"page",
               "type":"post_type",
               "type_label":"Page",
               "url":"https:\/\/hsppr.wpengine.com\/services\/surrendering-your-animal\/",
               "title":"Surrendering your Animal",
               "target":"",
               "attr_title":"",
               "description":"",
               "classes":[
                  ""
               ],
               "xfn":"",
               "slug":"surrendering-your-animal"
            },
            {
               "ID":450,
               "post_author":"3",
               "post_date":"2020-03-06 11:10:10",
               "post_date_gmt":"2020-03-06 18:10:10",
               "post_content":" ",
               "post_title":"",
               "post_excerpt":"",
               "post_status":"publish",
               "comment_status":"closed",
               "ping_status":"closed",
               "post_password":"",
               "post_name":"450",
               "to_ping":"",
               "pinged":"",
               "post_modified":"2020-04-03 07:58:23",
               "post_modified_gmt":"2020-04-03 13:58:23",
               "post_content_filtered":"",
               "post_parent":93,
               "guid":"https:\/\/hsppr.wpengine.com\/?p=450",
               "menu_order":26,
               "post_type":"nav_menu_item",
               "post_mime_type":"",
               "comment_count":"0",
               "filter":"raw",
               "db_id":450,
               "menu_item_parent":"449",
               "object_id":"97",
               "object":"page",
               "type":"post_type",
               "type_label":"Page",
               "url":"https:\/\/hsppr.wpengine.com\/services\/tnr\/",
               "title":"Community Cat Program",
               "target":"",
               "attr_title":"",
               "description":"",
               "classes":[
                  ""
               ],
               "xfn":"",
               "slug":"tnr"
            }
         ]
      },
      {
         "ID":455,
         "post_author":"3",
         "post_date":"2020-03-06 11:10:10",
         "post_date_gmt":"2020-03-06 18:10:10",
         "post_content":"",
         "post_title":"Resource Center",
         "post_excerpt":"",
         "post_status":"publish",
         "comment_status":"closed",
         "ping_status":"closed",
         "post_password":"",
         "post_name":"resource-center",
         "to_ping":"",
         "pinged":"",
         "post_modified":"2020-04-03 07:58:23",
         "post_modified_gmt":"2020-04-03 13:58:23",
         "post_content_filtered":"",
         "post_parent":0,
         "guid":"https:\/\/hsppr.wpengine.com\/?p=455",
         "menu_order":27,
         "post_type":"nav_menu_item",
         "post_mime_type":"",
         "comment_count":"0",
         "filter":"raw",
         "db_id":455,
         "menu_item_parent":"0",
         "object_id":"99",
         "object":"page",
         "type":"post_type",
         "type_label":"Page",
         "url":"https:\/\/hsppr.wpengine.com\/resources\/",
         "title":"Resource Center",
         "target":"",
         "attr_title":"",
         "description":"",
         "classes":[
            "elementor-hidden-desktop"
         ],
         "xfn":"",
         "slug":"resources"
      },
      {
         "ID":599,
         "post_author":"7",
         "post_date":"2020-03-12 16:13:16",
         "post_date_gmt":"2020-03-12 22:13:16",
         "post_content":" ",
         "post_title":"",
         "post_excerpt":"",
         "post_status":"publish",
         "comment_status":"closed",
         "ping_status":"closed",
         "post_password":"",
         "post_name":"599",
         "to_ping":"",
         "pinged":"",
         "post_modified":"2020-04-03 07:58:23",
         "post_modified_gmt":"2020-04-03 13:58:23",
         "post_content_filtered":"",
         "post_parent":0,
         "guid":"https:\/\/hsppr.wpengine.com\/?p=599",
         "menu_order":28,
         "post_type":"nav_menu_item",
         "post_mime_type":"",
         "comment_count":"0",
         "filter":"raw",
         "db_id":599,
         "menu_item_parent":"0",
         "object_id":"102",
         "object":"page",
         "type":"post_type",
         "type_label":"Page",
         "url":"https:\/\/hsppr.wpengine.com\/about-us\/",
         "title":"About Us",
         "target":"",
         "attr_title":"",
         "description":"",
         "classes":[
            "elementor-hidden-desktop"
         ],
         "xfn":"",
         "slug":"about-us"
      },
      {
         "ID":600,
         "post_author":"7",
         "post_date":"2020-03-12 16:13:16",
         "post_date_gmt":"2020-03-12 22:13:16",
         "post_content":" ",
         "post_title":"",
         "post_excerpt":"",
         "post_status":"publish",
         "comment_status":"closed",
         "ping_status":"closed",
         "post_password":"",
         "post_name":"600",
         "to_ping":"",
         "pinged":"",
         "post_modified":"2020-04-03 07:58:23",
         "post_modified_gmt":"2020-04-03 13:58:23",
         "post_content_filtered":"",
         "post_parent":0,
         "guid":"https:\/\/hsppr.wpengine.com\/?p=600",
         "menu_order":29,
         "post_type":"nav_menu_item",
         "post_mime_type":"",
         "comment_count":"0",
         "filter":"raw",
         "db_id":600,
         "menu_item_parent":"0",
         "object_id":"105",
         "object":"page",
         "type":"post_type",
         "type_label":"Page",
         "url":"https:\/\/hsppr.wpengine.com\/law\/",
         "title":"Animal Law Enforcement",
         "target":"",
         "attr_title":"",
         "description":"",
         "classes":[
            "elementor-hidden-desktop"
         ],
         "xfn":"",
         "slug":"law"
      },
      {
         "ID":598,
         "post_author":"7",
         "post_date":"2020-03-12 16:13:16",
         "post_date_gmt":"2020-03-12 22:13:16",
         "post_content":" ",
         "post_title":"",
         "post_excerpt":"",
         "post_status":"publish",
         "comment_status":"closed",
         "ping_status":"closed",
         "post_password":"",
         "post_name":"598",
         "to_ping":"",
         "pinged":"",
         "post_modified":"2020-04-03 07:58:23",
         "post_modified_gmt":"2020-04-03 13:58:23",
         "post_content_filtered":"",
         "post_parent":0,
         "guid":"https:\/\/hsppr.wpengine.com\/?p=598",
         "menu_order":30,
         "post_type":"nav_menu_item",
         "post_mime_type":"",
         "comment_count":"0",
         "filter":"raw",
         "db_id":598,
         "menu_item_parent":"0",
         "object_id":"71",
         "object":"page",
         "type":"post_type",
         "type_label":"Page",
         "url":"https:\/\/hsppr.wpengine.com\/contact-us\/",
         "title":"Contact Us",
         "target":"",
         "attr_title":"",
         "description":"",
         "classes":[
            "elementor-hidden-desktop"
         ],
         "xfn":"",
         "slug":"contact-us"
      },
      {
         "ID":601,
         "post_author":"7",
         "post_date":"2020-03-12 16:13:37",
         "post_date_gmt":"2020-03-12 22:13:37",
         "post_content":" ",
         "post_title":"",
         "post_excerpt":"",
         "post_status":"publish",
         "comment_status":"closed",
         "ping_status":"closed",
         "post_password":"",
         "post_name":"601",
         "to_ping":"",
         "pinged":"",
         "post_modified":"2020-04-03 07:58:23",
         "post_modified_gmt":"2020-04-03 13:58:23",
         "post_content_filtered":"",
         "post_parent":0,
         "guid":"https:\/\/hsppr.wpengine.com\/?p=601",
         "menu_order":31,
         "post_type":"nav_menu_item",
         "post_mime_type":"",
         "comment_count":"0",
         "filter":"raw",
         "db_id":601,
         "menu_item_parent":"0",
         "object_id":"73",
         "object":"page",
         "type":"post_type",
         "type_label":"Page",
         "url":"https:\/\/hsppr.wpengine.com\/donate\/",
         "title":"Donate",
         "target":"",
         "attr_title":"",
         "description":"",
         "classes":[
            "elementor-hidden-desktop",
            "menu-cta"
         ],
         "xfn":"",
         "slug":"donate"
      }
   ]
}
